<?xml version="1.0" encoding="UTF-8"?>
<svg width="50px" height="56px" viewBox="0 0 50 56" version="1.1" xmlns="http://www.w3.org/2000/svg" xmlns:xlink="http://www.w3.org/1999/xlink">
    <!-- Generator: Sketch 54.1 (76490) - https://sketchapp.com -->
    <title>形状结合</title>
    <desc>Created with Sketch.</desc>
    <defs>
        <rect id="path-1" x="0" y="0" width="75" height="75"></rect>
    </defs>
    <g id="APP-tongwei-" stroke="none" stroke-width="1" fill="none" fill-rule="evenodd">
        <g id="技术人员菜单页" transform="translate(-162.000000, -248.000000)">
            <g id="编组-6" transform="translate(0.000000, 223.500000)">
                <g id="Group-10备份-2" transform="translate(150.000000, 15.000000)">
                    <g id="形状结合">
                        <mask id="mask-2" fill="white">
                            <use xlink:href="#path-1"></use>
                        </mask>
                        <g id="蒙版"></g>
                        <g id="编组-11" mask="url(#mask-2)" fill="#7670CA">
                            <g transform="translate(12.500000, 9.000000)">
                                <path d="M17.75,16.150798 L17.75,6.5 C17.75,6.36192881 17.8619288,6.25 18,6.25 L31,6.25 C31.1380712,6.25 31.25,6.36192881 31.25,6.5 L31.25,36.5 C31.25,36.6380712 31.1380712,36.75 31,36.75 L18,36.75 C17.8619288,36.75 17.75,36.6380712 17.75,36.5 L17.75,25.7694781 L14.25,25.7694781 L14.25,36.5 C14.25,38.5710678 15.9289322,40.25 18,40.25 L31,40.25 C33.0710678,40.25 34.75,38.5710678 34.75,36.5 L34.75,6.5 C34.75,4.42893219 33.0710678,2.75 31,2.75 L18,2.75 C15.9289322,2.75 14.25,4.42893219 14.25,6.5 L14.25,16.150798 L17.75,16.150798 Z" id="路径" fill-rule="nonzero" transform="translate(24.500000, 21.500000) rotate(-44.000000) translate(-24.500000, -21.500000) "></path>
                                <rect id="矩形" fill-rule="evenodd" transform="translate(9.250000, 5.250000) rotate(-43.000000) translate(-9.250000, -5.250000) " x="4" y="3.5" width="10.5" height="3.5" rx="1.75"></rect>
                                <rect id="矩形备份-8" fill-rule="evenodd" transform="translate(39.500000, 37.750000) rotate(-44.000000) translate(-39.500000, -37.750000) " x="26.5" y="36" width="26" height="3.5" rx="1.75"></rect>
                                <rect id="矩形备份-9" fill-rule="evenodd" transform="translate(20.500000, 54.750000) rotate(-360.000000) translate(-20.500000, -54.750000) " x="0" y="53" width="41" height="3.5" rx="1.75"></rect>
                                <path d="M12.4646173,28 C9.29877269,31.3236935 7.5,35.729246 7.5,40.412892 C7.5,47.3365093 11.4451718,53.55354 17.5438198,56.5631195 L19.0926826,53.4244854 C14.1776724,50.9990112 11,45.9914505 11,40.412892 C11,36.6370966 12.4469747,33.0931673 14.9989392,30.4139619 L12.4646173,28 Z" id="路径" fill-rule="nonzero"></path>
                                <path d="M17.75,34 C21.4779221,34 24.5,30.9779221 24.5,27.25 C24.5,23.5220779 21.4779221,20.5 17.75,20.5 C14.0220779,20.5 11,23.5220779 11,27.25 C11,30.9779221 14.0220779,34 17.75,34 Z M17.75,30.5 C15.9550746,30.5 14.5,29.0449254 14.5,27.25 C14.5,25.4550746 15.9550746,24 17.75,24 C19.5449254,24 21,25.4550746 21,27.25 C21,29.0449254 19.5449254,30.5 17.75,30.5 Z" id="椭圆形" fill-rule="nonzero"></path>
                            </g>
                        </g>
                    </g>
                </g>
            </g>
        </g>
    </g>
</svg>