<?xml version="1.0" encoding="UTF-8"?>
<svg width="48px" height="56px" viewBox="0 0 48 56" version="1.1" xmlns="http://www.w3.org/2000/svg" xmlns:xlink="http://www.w3.org/1999/xlink">
    <!-- Generator: Sketch 54.1 (76490) - https://sketchapp.com -->
    <title>changyongtubiao-xianxingdaochu-zhuanqu-</title>
    <desc>Created with Sketch.</desc>
    <defs>
        <rect id="path-1" x="0" y="0" width="75" height="75"></rect>
    </defs>
    <g id="APP-tongwei-" stroke="none" stroke-width="1" fill="none" fill-rule="evenodd">
        <g id="管理人员菜单页" transform="translate(-299.000000, -235.000000)">
            <g id="编组-7" transform="translate(0.000000, 210.500000)">
                <g id="Group-9" transform="translate(285.000000, 15.000000)">
                    <g id="changyongtubiao-xianxingdaochu-zhuanqu-">
                        <mask id="mask-2" fill="white">
                            <use xlink:href="#path-1"></use>
                        </mask>
                        <g id="蒙版"></g>
                        <g mask="url(#mask-2)" fill="#7670CA" fill-rule="nonzero">
                            <g transform="translate(14.000000, 9.500000)">
                                <path d="M24.7868852,33.915493 C23.7004234,33.915493 22.8196721,32.9922838 22.8196721,31.8534475 L22.8196721,17.047961 C22.8196721,15.9091247 23.7004234,14.9859155 24.7868852,14.9859155 C25.873347,14.9859155 26.7540984,15.9091247 26.7540984,17.047961 L26.7540984,31.8534475 C26.7540984,32.9922838 25.873347,33.915493 24.7868852,33.915493 L24.7868852,33.915493 Z" id="路径"></path>
                                <path d="M31.7788492,26.028169 L17.008036,26.028169 C15.8718668,26.028169 14.9508197,25.1453502 14.9508197,24.056338 C14.9508197,22.9673258 15.8718668,22.084507 17.008036,22.084507 L31.7788492,22.084507 C32.9150185,22.084507 33.8360656,22.9673258 33.8360656,24.056338 C33.8360656,25.1453502 32.9150185,26.028169 31.7788492,26.028169 L31.7788492,26.028169 Z" id="路径"></path>
                                <path d="M23.9932021,55.9999911 C23.4707146,55.9997689 22.9682395,55.7942994 22.5894361,55.4259704 L9.78899343,42.9853748 C3.58808026,36.9859777 0.0517602267,28.6535493 1.97549829e-05,19.9201766 L1.97549829e-05,9.8939471 C-0.00458879469,8.81312183 0.797664642,7.90746654 1.84904812,7.80659885 C13.7827587,6.64812057 22.7559846,0.43130168 22.8443573,0.368681233 C23.5411791,-0.122893744 24.4622199,-0.122893744 25.1590417,0.368681233 C25.2440154,0.43130168 34.2172413,6.630726 46.1509519,7.80659885 C47.2023354,7.90746654 48.0045888,8.81312183 47.9999802,9.8939471 L47.9999802,19.9201766 C47.9464702,28.6545854 44.4076288,36.9871682 38.2042087,42.9853748 L25.403766,55.4259704 C25.0232601,55.7959592 24.5180386,56.0015561 23.9932021,55.9999911 Z M4.07875879,11.751687 L4.07875879,19.9201766 C4.12957022,27.5094622 7.20928387,34.7476338 12.6033234,39.9552409 L24,51.0321023 L35.3966766,39.9552409 C40.7882088,34.7464424 43.8654008,27.5084255 43.9144433,19.9201766 L43.9144433,11.751687 C36.8754602,10.7279508 30.1045609,8.28624307 23.9932021,4.56773014 C17.8841711,8.28596728 11.1155454,10.7276883 4.07875879,11.751687 Z" id="形状"></path>
                            </g>
                        </g>
                    </g>
                </g>
            </g>
        </g>
    </g>
</svg>