<?xml version="1.0" encoding="UTF-8"?>
<svg width="57px" height="51px" viewBox="0 0 57 51" version="1.1" xmlns="http://www.w3.org/2000/svg" xmlns:xlink="http://www.w3.org/1999/xlink">
    <!-- Generator: Sketch 54.1 (76490) - https://sketchapp.com -->
    <title>Group 7</title>
    <desc>Created with Sketch.</desc>
    <defs>
        <rect id="path-1" x="0" y="0" width="75" height="75"></rect>
    </defs>
    <g id="APP-tongwei-" stroke="none" stroke-width="1" fill="none" fill-rule="evenodd">
        <g id="管理人员菜单页" transform="translate(-294.000000, -513.000000)">
            <g id="编组-7" transform="translate(0.000000, 210.500000)">
                <g id="Group-8备份" transform="translate(285.000000, 290.500000)">
                    <g id="Group-7">
                        <mask id="mask-2" fill="white">
                            <use xlink:href="#path-1"></use>
                        </mask>
                        <g id="蒙版"></g>
                        <g id="guanli" mask="url(#mask-2)" fill="#D39540">
                            <g transform="translate(9.500000, 12.500000)">
                                <path d="M34.8242454,16.1308517 L20.9605648,16.1308517 C20.0303178,16.1308517 19.3101266,15.4258319 19.3101266,14.5798082 L19.3101266,1.55104343 C19.3101266,0.676818951 20.0603258,1.59872116e-13 20.9605648,1.59872116e-13 L34.8242454,1.59872116e-13 C35.7544923,1.59872116e-13 36.4746835,0.705019741 36.4746835,1.55104343 L36.4746835,14.5516074 C36.4746835,15.4258319 35.7244844,16.1308517 34.8242454,16.1308517 Z M22.1708861,13.000564 L33.6139241,13.000564 L33.6139241,3.10208686 L22.1708861,3.10208686 L22.1708861,13.000564 Z M34.71925,50 L21.66775,50 C20.792,50 20.114,49.2949803 20.114,48.4489566 L20.114,35.4201918 C20.114,34.5459673 20.82025,33.8691483 21.66775,33.8691483 L34.71925,33.8691483 C35.595,33.8691483 36.273,34.5741681 36.273,35.4201918 L36.273,48.4489566 C36.273,49.2949803 35.56675,50 34.71925,50 Z M23.2215,46.8697124 L33.13725,46.8697124 L33.13725,36.9712352 L23.2215,36.9712352 L23.2215,46.8697124 L23.2215,46.8697124 Z M14.60525,50 L1.55375,50 C0.678,50 0,49.2949803 0,48.4489566 L0,35.4201918 C0,34.5459673 0.70625,33.8691483 1.55375,33.8691483 L14.60525,33.8691483 C15.481,33.8691483 16.159,34.5741681 16.159,35.4201918 L16.159,48.4489566 C16.18725,49.2949803 15.481,50 14.60525,50 Z M3.13575,46.8697124 L13.0515,46.8697124 L13.0515,36.9712352 L3.13575,36.9712352 L3.13575,46.8697124 Z M54.94625,50 L41.89475,50 C41.019,50 40.341,49.2949803 40.341,48.4489566 L40.341,35.4201918 C40.341,34.5459673 41.04725,33.8691483 41.89475,33.8691483 L54.94625,33.8691483 C55.822,33.8691483 56.5,34.5741681 56.5,35.4201918 L56.5,48.4489566 C56.5,49.2949803 55.79375,50 54.94625,50 Z M43.4485,46.8697124 L53.36425,46.8697124 L53.36425,36.9712352 L43.4485,36.9712352 L43.4485,46.8697124 Z" id="形状" fill-rule="nonzero"></path>
                                <path d="M49.080702,36.2318841 C48.2075345,36.2318841 47.5315339,35.5147947 47.5315339,34.6542874 L47.5315339,25.6476449 L10.4359986,25.6476449 L10.4359986,34.6542874 C10.4359986,35.5434783 9.73183128,36.2318841 8.88683048,36.2318841 C8.04182967,36.2318841 7.33766234,35.5147947 7.33766234,34.6542874 L7.33766234,24.0413647 C7.33766234,23.1521739 8.04182967,22.4637681 8.88683048,22.4637681 L49.080702,22.4637681 C49.9538695,22.4637681 50.6298701,23.1808575 50.6298701,24.0413647 L50.6298701,34.6542874 C50.6298701,35.5147947 49.9257028,36.2318841 49.080702,36.2318841 Z" id="路径" fill-rule="nonzero"></path>
                                <rect id="矩形" fill-rule="evenodd" x="7.33766234" y="42.7536232" width="2.93506494" height="6.52173913" rx="1"></rect>
                                <rect id="矩形备份-3" fill-rule="evenodd" x="26.4155844" y="42.7536232" width="2.93506494" height="6.52173913" rx="1"></rect>
                                <rect id="矩形备份-4" fill-rule="evenodd" x="47.6948052" y="42.7536232" width="2.93506494" height="6.52173913" rx="1"></rect>
                                <path d="M27.8831169,36.9565217 C27.0559622,36.9565217 26.4155844,36.1466326 26.4155844,35.1747656 L26.4155844,11.202046 C26.4155844,10.1977835 27.0826446,9.42028986 27.8831169,9.42028986 C28.7102715,9.42028986 29.3506494,10.230179 29.3506494,11.202046 L29.3506494,35.1747656 C29.3506494,36.1466326 28.6835891,36.9565217 27.8831169,36.9565217 L27.8831169,36.9565217 Z" id="路径" fill-rule="nonzero"></path>
                            </g>
                        </g>
                    </g>
                </g>
            </g>
        </g>
    </g>
</svg>