<?xml version="1.0" encoding="UTF-8"?>
<svg width="62px" height="37px" viewBox="0 0 62 37" version="1.1" xmlns="http://www.w3.org/2000/svg" xmlns:xlink="http://www.w3.org/1999/xlink">
    <!-- Generator: Sketch 54.1 (76490) - https://sketchapp.com -->
    <title>Group 12</title>
    <desc>Created with Sketch.</desc>
    <defs>
        <rect id="path-1" x="0" y="0" width="75" height="75"></rect>
    </defs>
    <g id="APP-tongwei-" stroke="none" stroke-width="1" fill="none" fill-rule="evenodd">
        <g id="管理人员菜单页" transform="translate(-24.000000, -246.000000)">
            <g id="编组-7" transform="translate(0.000000, 210.500000)">
                <g id="Group-11" transform="translate(15.000000, 15.000000)">
                    <g id="Group-12">
                        <g id="编组-2" transform="translate(37.500000, 37.500000) rotate(-360.000000) translate(-37.500000, -37.500000) ">
                            <mask id="mask-2" fill="white">
                                <use xlink:href="#path-1"></use>
                            </mask>
                            <g id="蒙版"></g>
                            <g mask="url(#mask-2)">
                                <g transform="translate(4.166667, 3.645833)">
                                    <g id="yu" stroke-width="1" fill="none" fill-rule="evenodd" transform="translate(33.764379, 34.036595) rotate(40.000000) translate(-33.764379, -34.036595) translate(9.764379, 10.286595)">
                                        <path d="M13.728916,38.7202847 C12.4687779,38.7173175 11.2714624,38.1696789 10.445128,37.2183172 C9.61879353,36.2669555 9.24414928,35.0047913 9.41761912,33.7566736 C10.1620745,28.3315374 12.4963377,18.1452613 19.7615956,10.8801599 C27.9921912,2.65246839 39.8973426,0.743649423 44.6347243,0.305302761 C45.49401,0.223872531 46.3448342,0.529963785 46.9552951,1.14014784 C47.565756,1.7503319 47.8722215,2.60100551 47.7911607,3.46030784 C47.3534864,8.19895097 45.4446263,20.1079362 37.2167576,28.3342643 C29.9521815,35.5986839 19.765686,37.9335786 14.3397512,38.6793815 C14.1373178,38.7070013 13.9332246,38.720668 13.728916,38.7202847 Z M44.8992377,3.19784524 C40.4734093,3.60687787 29.3713427,5.37935265 21.8143019,12.9335037 C15.150335,19.5980089 12.9892327,29.0902929 12.2938622,34.1513901 C12.2273841,34.6069633 12.3803779,35.067127 12.706405,35.3922069 C13.0324322,35.7172867 13.4930458,35.8689474 13.9484349,35.8011551 C19.012368,35.1064813 28.5028113,32.9447439 35.1667782,26.2809204 C42.7176833,18.7260876 44.4901963,7.62426009 44.8992377,3.19784524 Z" id="形状" fill="#39BDFF" fill-rule="nonzero"></path>
                                        <path d="M9.23399697,38.155849 L7.93537623,42.9934022 L4.39386855,39.4522888 L9.23196042,38.155849 L9.23399697,38.155849 Z M11.2834146,34.6636066 C11.1547906,34.6638397 11.0267536,34.6809551 10.9025854,34.7145139 L1.22775928,37.3073936 C0.728641927,37.4409963 0.338755084,37.8307489 0.205021263,38.3297796 C0.0712874433,38.8288102 0.214033224,39.3612698 0.57946718,39.7265096 L7.6638403,46.8087364 C7.93257259,47.0810449 8.29949772,47.2339134 8.68210013,47.2329641 C9.33934967,47.2366962 9.91602604,46.7957246 10.0845833,46.1605164 L12.6770729,36.48541 C12.7932342,36.05213 12.7018743,35.5894826 12.4297304,35.2328649 C12.1575864,34.8762472 11.7354302,34.6659826 11.2868088,34.6636066 L11.2834146,34.6636066 Z M42.3461675,19.2173159 C42.2952545,19.2173159 42.2436627,19.2173159 42.1920708,19.2098495 C35.4142386,18.4884522 30.0596781,13.1339224 29.3389164,6.35676857 C29.2812011,5.84120191 29.5041376,5.33423035 29.9231245,5.02824283 C30.3421114,4.7222553 30.8929301,4.66415085 31.3665522,4.87597934 C31.8401744,5.08780782 32.1640074,5.53710206 32.215161,6.0533609 C32.791687,11.4742234 37.0747631,15.7571054 42.4961911,16.3339251 C43.2627289,16.4121105 43.8332905,17.077587 43.7934489,17.8469863 C43.7536074,18.6163856 43.1173608,19.2193842 42.3468463,19.2179947 L42.3461675,19.2173159 Z" id="形状" fill="#39BDFF" fill-rule="nonzero"></path>
                                        <path d="M37.9356984,9.28341498 C38.3318864,9.67968328 38.9093956,9.83446823 39.4506582,9.68945695 C39.9919209,9.54444567 40.4146946,9.12167193 40.5597059,8.58040931 C40.7047172,8.0391467 40.5499323,7.46163747 40.153664,7.06544947 C39.757476,6.66918117 39.1799668,6.51439622 38.6387041,6.6594075 C38.0974415,6.80441878 37.6746678,7.22719252 37.5296565,7.76845514 C37.3846452,8.30971775 37.5394301,8.88722698 37.9356984,9.28341498 L37.9356984,9.28341498 Z" id="路径" fill="#39BDFF" fill-rule="nonzero"></path>
                                        <path d="M28.478738,25.2683191 C26.358627,25.2706324 24.4462497,23.99262 23.6346058,22.0310599 C22.8229619,20.0694998 23.2721712,17.8113658 24.7724721,16.3111113 C25.148973,15.9237124 25.7045243,15.7692436 26.2265496,15.9068108 C26.7485749,16.0443781 27.1562672,16.4526867 27.2936268,16.9755012 C27.4309864,17.4983157 27.2767507,18.054707 26.8899366,18.4317771 C26.2687593,18.9884611 26.0058497,19.8435076 26.2067325,20.6537236 C26.4076154,21.4639396 27.0393579,22.0964971 27.8483952,22.2975044 C28.6574326,22.4985116 29.5111301,22.2350153 30.0668364,21.6127757 C30.4425322,21.2203273 31.0008168,21.0621335 31.5261234,21.1992767 C32.0514299,21.33642 32.4615568,21.7474396 32.5981443,22.2736312 C32.7347317,22.7998229 32.5764062,23.3588464 32.1843009,23.7348496 C31.2017148,24.7189427 29.8683377,25.2707328 28.478738,25.2683191 L28.478738,25.2683191 Z" id="路径" fill="#39BDFF" fill-rule="nonzero"></path>
                                    </g>
                                    <path d="M39.7483764,45.2944388 L39.9398865,45.5662307 L39.9607904,45.898059 C40.3190419,51.584961 38.4344908,54.404617 34.4368396,53.0123986 C33.5707702,52.710782 32.9196915,52.4014744 32.4432183,52.0537698 C31.2669069,51.1953607 31.086528,50.0034969 31.8112044,48.8593443 C32.0294847,48.5147132 32.3096539,48.1855541 32.7342261,47.7453668 C32.8012908,47.6758356 33.5488822,46.9198644 33.7694151,46.6856217 C34.0610324,46.3758757 34.3010527,46.0988756 34.5110088,45.8247007 C36.2377662,43.5697848 38.287688,43.2214245 39.7483764,45.2944388 Z M36.3789545,47.2551261 C36.1151642,47.5996013 35.8247753,47.9347302 35.4824202,48.2983683 C35.2379249,48.558063 34.4762143,49.3283116 34.4276216,49.3786915 C34.105522,49.7126374 33.910786,49.9414247 33.7987991,50.1182348 C33.7418928,50.2080811 33.7406612,50.2121827 33.7303431,50.1440052 C33.7195202,50.0724917 33.7196449,50.0726664 33.8301006,50.1532711 C34.0887566,50.3420243 34.5447809,50.5586676 35.2106181,50.7905514 C37.0688175,51.4376863 37.8369574,50.3885294 37.6337015,46.4128929 C37.3458884,46.1305131 37.0993703,46.3143587 36.3789545,47.2551261 Z" id="路径-2" fill="#39BDFF" fill-rule="nonzero"></path>
                                    <path d="M36.6220369,18.54126 L36.8092118,18.8111158 L36.8295383,19.1389015 C37.1478785,24.2724607 35.4333797,26.878403 31.7954309,25.5913439 C31.0243839,25.3185575 30.4418037,25.0373983 30.0110329,24.7180551 C28.9244489,23.912538 28.7564299,22.7847208 29.4231586,21.7153497 C29.6199587,21.3997005 29.8699635,21.1013181 30.2472327,20.7039649 C30.3069875,20.6410291 30.9603103,19.9698967 31.1518872,19.7631801 C31.4041555,19.4909761 31.6113106,19.2481099 31.7920075,19.0083983 C33.3555284,16.9342387 35.2772757,16.6024765 36.6220369,18.54126 Z M33.6707506,20.4246124 C33.4369193,20.7348119 33.1799664,21.0360604 32.8775088,21.36242 C32.6621861,21.5947589 31.9948697,22.2802663 31.9534242,22.3239182 C31.7277661,22.5615891 31.5759585,22.7369927 31.4776972,22.8738744 C31.6999463,23.0212249 32.0650643,23.1911065 32.5801348,23.3733318 C34.0624572,23.8977582 34.6702713,23.068971 34.5021148,19.6570292 C34.3460945,19.5459487 34.1930413,19.7317439 33.6707506,20.4246124 Z" id="路径-2备份" fill="#39BDFF" fill-rule="nonzero" transform="translate(32.947963, 21.586030) scale(1, -1) rotate(27.000000) translate(-32.947963, -21.586030) "></path>
                                </g>
                            </g>
                        </g>
                    </g>
                </g>
            </g>
        </g>
    </g>
</svg>