<?xml version="1.0" encoding="UTF-8"?>
<svg width="47px" height="47px" viewBox="0 0 47 47" version="1.1" xmlns="http://www.w3.org/2000/svg" xmlns:xlink="http://www.w3.org/1999/xlink">
    <!-- Generator: Sketch 54.1 (76490) - https://sketchapp.com -->
    <title>chukudengji</title>
    <desc>Created with Sketch.</desc>
    <g id="APP-tongwei-" stroke="none" stroke-width="1" fill="none" fill-rule="evenodd">
        <g id="库管员菜单页" transform="translate(-164.000000, -263.000000)" fill="#7670CA" fill-rule="nonzero">
            <g id="编组" transform="translate(0.000000, 234.000000)">
                <g id="Group-11备份-2" transform="translate(150.000000, 15.000000)">
                    <g id="Group-12">
                        <g id="chukudengji" transform="translate(14.000000, 14.000000)">
                            <path d="M12.1210526,38.5894737 L35.3736842,38.5894737 C36.3300089,38.5894737 37.1052632,37.8142194 37.1052632,36.8578947 L37.1052632,36.8578947 C37.1052632,35.9015701 36.3300089,35.1263158 35.3736842,35.1263158 L12.1210526,35.1263158 C11.164728,35.1263158 10.3894737,35.9015701 10.3894737,36.8578947 L10.3894737,36.8578947 C10.3894737,37.8142194 11.164728,38.5894737 12.1210526,38.5894737 Z" id="路径"></path>
                            <path d="M6.99534882,0 C3.14790693,0 0,3.14790699 0,6.99534888 L0,40.0046512 C0,43.8520931 3.14790699,47 6.99534882,47 L40.0046512,47 C43.8520931,47 47,43.852093 47,40.0046512 L47,6.99534888 C47,3.14790699 43.852093,5.80668607e-08 40.0046512,4.12589859e-16 L36.5069767,3.10862447e-15 C35.5411206,3.28604936e-15 34.7581395,0.7829811 34.7581395,1.74883723 L34.7581395,1.74883723 C34.7581395,2.71469337 35.5411206,3.49767447 36.5069767,3.49767447 L40.0046512,3.49767447 C42.1032558,3.49767447 43.5023256,4.89674426 43.5023256,6.99534888 L43.5023256,40.0046512 C43.5023256,41.7534884 42.1032558,43.5023256 40.0046512,43.5023256 L6.99534882,43.5023256 C5.24651162,43.5023256 3.49767441,42.1032558 3.49767441,40.0046512 L3.49767441,6.99534888 C3.49767441,5.24651167 4.8967442,3.49767447 6.99534882,3.49767447 L11.1925581,3.49767447 C12.1584142,3.49767447 12.9413953,2.71469337 12.9413953,1.74883723 L12.9413953,1.74883723 C12.9413953,0.7829811 12.1584142,4.88708921e-16 11.1925581,6.66133815e-16 L6.99534882,0 Z" id="路径"></path>
                            <path d="M23.3280999,29.6842105 L23.3280999,29.6842105 C22.3787219,29.6842105 21.609099,28.9145876 21.609099,27.9652096 L21.609099,13.8866611 L16.9332817,18.7870531 C16.2995,19.4512747 15.2472604,19.4759511 14.5830388,18.8421693 C14.575693,18.8351602 14.5684115,18.8280838 14.5611954,18.8209412 L14.5611954,18.8209412 C13.8953301,18.1618644 13.8862369,17.0889193 14.540836,16.4186516 L22.6247058,8.14128337 C23.0105846,7.74616812 23.6437053,7.73868043 24.0388205,8.12455915 C24.0404189,8.12612017 24.042012,8.12768655 24.0435999,8.12925825 L32.4388046,16.438875 C33.0965941,17.0899583 33.1020304,18.1510094 32.4509471,18.8087988 C32.4469203,18.812867 32.4428728,18.8169145 32.4388046,18.8209412 L32.4388046,18.8209412 C31.7722548,19.4806957 30.6987532,19.4806957 30.0322034,18.8209412 L25.8988381,14.7297151 C25.7025781,14.5354559 25.3859998,14.5370779 25.1917406,14.7333379 C25.0990784,14.8269546 25.0471008,14.9533545 25.0471008,15.0850753 L25.0471008,27.9652096 C25.0471008,28.9145876 24.2774779,29.6842105 23.3280999,29.6842105 Z" id="路径"></path>
                        </g>
                    </g>
                </g>
            </g>
        </g>
    </g>
</svg>