<?xml version="1.0" encoding="UTF-8"?>
<svg width="53px" height="53px" viewBox="0 0 53 53" version="1.1" xmlns="http://www.w3.org/2000/svg" xmlns:xlink="http://www.w3.org/1999/xlink">
    <!-- Generator: Sketch 54.1 (76490) - https://sketchapp.com -->
    <title>Group 7</title>
    <desc>Created with Sketch.</desc>
    <defs>
        <rect id="path-1" x="0" y="0" width="75" height="75"></rect>
    </defs>
    <g id="APP-tongwei-" stroke="none" stroke-width="1" fill="none" fill-rule="evenodd">
        <g id="管理人员菜单页" transform="translate(-26.000000, -374.000000)">
            <g id="编组-7" transform="translate(0.000000, 210.500000)">
                <g id="Group-8" transform="translate(15.000000, 152.500000)">
                    <g id="Group-7">
                        <mask id="mask-2" fill="white">
                            <use xlink:href="#path-1"></use>
                        </mask>
                        <g id="蒙版"></g>
                        <g id="dengjizongshu" mask="url(#mask-2)" fill="#4491DC" fill-rule="nonzero">
                            <g transform="translate(11.500000, 11.500000)" id="形状">
                                <path d="M51.6392255,37.9739822 L43.0878521,46.5180181 L37.1009681,52.5 L31.4081038,52.5 C30.4276686,52.4929289 29.6346745,51.7004322 29.6278239,50.7208366 L29.6278239,45.0192931 L35.6079495,39.0444162 L44.1593816,30.5003216 C44.7104458,29.9497252 45.4578521,29.640403 46.2371781,29.640403 C47.016504,29.640403 47.7639103,29.9497252 48.3149745,30.5003216 L51.6392255,33.8217202 C52.1903665,34.372321 52.5,35.1191364 52.5,35.8978512 C52.5,36.676566 52.1903665,37.4233814 51.6392255,37.9739822 L51.6392255,37.9739822 Z M47.8992448,35.0674281 L47.0681379,34.2370344 C46.8477109,34.0167851 46.5487408,33.8930494 46.2370017,33.8930494 C45.9252627,33.8930494 45.6262926,34.0167851 45.4058655,34.2370344 L33.1539453,46.4786182 L33.1539453,48.9769041 L35.6403898,48.9769041 L47.8995386,36.7282742 C48.3584197,36.2695835 48.3582881,35.5260741 47.8992448,35.0675456 L47.8992448,35.0674281 Z M45.8395785,26.2470641 C44.8658669,26.2470641 44.0765178,25.4583922 44.0765178,24.4855162 L44.0765178,4.69746113 C44.0765178,4.0488771 43.550285,3.52309585 42.901144,3.52309585 L4.70149523,3.52309585 C4.0523542,3.52309585 3.52612142,4.0488771 3.52612142,4.69746113 L3.52612142,47.796667 C3.52612142,48.4452511 4.0523542,48.9710323 4.70149523,48.9710323 L22.6847145,48.9710323 C23.658426,48.9710323 24.4477752,49.7597042 24.4477752,50.7325802 C24.4477752,51.7054563 23.658426,52.4941282 22.6847145,52.4941282 L2.93843452,52.4941282 C1.31558195,52.4941282 0,51.1796751 0,49.558215 L0,2.93591321 C0,1.31445312 1.31558195,0 2.93843452,0 L44.6642047,0 C46.2870572,0 47.6026392,1.31445312 47.6026392,2.93591321 L47.6026392,24.4855162 C47.6026392,25.4583922 46.81329,26.2470641 45.8395785,26.2470641 L45.8395785,26.2470641 Z M8.87407224,17.7316827 C8.87407224,16.7594877 9.66286887,15.9713679 10.6358988,15.9713679 L36.9667404,15.9713679 C37.598594,15.9677217 38.1840186,16.3024305 38.5010036,16.8485627 C38.8179886,17.3946949 38.8179886,18.0686118 38.5010036,18.614744 C38.1840186,19.1608762 37.598594,19.495585 36.9667404,19.4919388 L10.6358988,19.4919388 C9.66289182,19.4919388 8.8741047,18.7038548 8.87407224,17.7316827 Z M30.3258784,28.008612 L10.6358988,28.008612 C9.66286887,28.008612 8.87407224,27.2204922 8.87407224,26.2482972 L8.87407224,26.245831 C8.87407224,25.273636 9.66286887,24.4855162 10.6358988,24.4855162 L30.3258784,24.4855162 C31.2989083,24.4855162 32.0877049,25.273636 32.0877049,26.245831 L32.0877049,26.2482972 C32.0877049,27.2204922 31.2989083,28.008612 30.3258784,28.008612 L30.3258784,28.008612 Z M10.6358988,36.5227603 C10.0040451,36.5264065 9.41862055,36.1916977 9.10163556,35.6455655 C8.78465057,35.0994333 8.78465057,34.4255164 9.10163556,33.8793842 C9.41862055,33.333252 10.0040451,32.9985432 10.6358988,33.0021894 L23.6370611,33.0021894 C24.2689148,32.9985432 24.8543394,33.333252 25.1713244,33.8793842 C25.4883094,34.4255164 25.4883094,35.0994333 25.1713244,35.6455655 C24.8543394,36.1916977 24.2689148,36.5264065 23.6370611,36.5227603 L10.6358988,36.5227603 Z"></path>
                            </g>
                        </g>
                    </g>
                </g>
            </g>
        </g>
    </g>
</svg>