<?xml version="1.0" encoding="UTF-8"?>
<svg width="45px" height="51px" viewBox="0 0 45 51" version="1.1" xmlns="http://www.w3.org/2000/svg" xmlns:xlink="http://www.w3.org/1999/xlink">
    <!-- Generator: Sketch 54.1 (76490) - https://sketchapp.com -->
    <title>编组 12</title>
    <desc>Created with Sketch.</desc>
    <g id="APP-tongwei-" stroke="none" stroke-width="1" fill="none" fill-rule="evenodd">
        <g id="管理人员菜单页" transform="translate(-165.000000, -665.000000)" fill-rule="nonzero" stroke="#DC625A" stroke-width="3.5">
            <g id="编组-10" transform="translate(0.000000, 636.500000)">
                <g id="编组-6">
                    <g id="Group-11备份-3" transform="translate(150.000000, 16.500000)">
                        <g id="Group-12">
                            <g id="编组-12" transform="translate(17.500000, 14.000000)">
                                <path d="M0,2.5 L2.01227923e-16,46.4538914 C2.04346498e-16,46.4793565 0.0206435407,46.5 0.0461086386,46.5 L0.0461086386,46.5 C0.0764694339,46.5 0.106452156,46.4932648 0.133896054,46.4802798 L16.7671271,38.6103138 C18.791189,37.6526347 21.1372896,37.6494328 23.1639579,38.6015837 L39.9649393,46.4948681 C39.972133,46.4982478 39.9799833,46.5 39.9879313,46.5 L39.9879313,46.5 C39.9945967,46.5 40,46.4945967 40,46.4879313 L40,2.5 C40,1.11928813 38.8807119,-2.53632657e-16 37.5,0 L2.5,0 C1.11928813,2.53632657e-16 -1.69088438e-16,1.11928813 0,2.5 Z" id="路径"></path>
                                <path d="M19.2671606,27.865226 L13.2913921,31.0255382 C13.0472845,31.1546356 12.7447422,31.0614015 12.6156448,30.8172939 C12.5641265,30.7198789 12.5462336,30.6081729 12.5647475,30.4995402 L13.7068034,23.7983922 C13.7343369,23.6368361 13.6809503,23.4720429 13.5639137,23.3573219 L8.72015822,18.609401 C8.52295497,18.4160994 8.51979202,18.0995327 8.71309357,17.9023295 C8.78962647,17.8242518 8.88964143,17.7734113 8.99782278,17.7575935 L15.6858395,16.7796979 C15.8489071,16.7558548 15.989753,16.6531891 16.0623597,16.5052438 L19.0514066,10.4146849 C19.1730668,10.1667869 19.4726529,10.064451 19.7205509,10.1861112 C19.8199592,10.2348975 19.9003599,10.3153036 19.9491395,10.4147152 L22.9376469,16.5052166 C23.0102488,16.6531775 23.1511025,16.7558562 23.3141819,16.7797011 L30.0023097,17.7576128 C30.2755468,17.7975645 30.4646619,18.0514541 30.4247103,18.3246911 C30.4088951,18.4328546 30.3580687,18.5328548 30.2800121,18.6093833 L25.4372759,23.3573092 C25.3202553,23.4720387 25.2668856,23.6368305 25.2944301,23.7983791 L26.4369864,30.4994592 C26.4833998,30.7716731 26.3003522,31.0299716 26.0281383,31.0763849 C25.9194945,31.0949091 25.8077743,31.0770181 25.710348,31.0254938 L19.7346635,27.865226 C19.5884248,27.787887 19.4133992,27.787887 19.2671606,27.865226 Z" id="路径"></path>
                            </g>
                        </g>
                    </g>
                </g>
            </g>
        </g>
    </g>
</svg>