<?xml version="1.0" encoding="UTF-8"?>
<svg width="47px" height="53px" viewBox="0 0 47 53" version="1.1" xmlns="http://www.w3.org/2000/svg" xmlns:xlink="http://www.w3.org/1999/xlink">
    <!-- Generator: Sketch 54.1 (76490) - https://sketchapp.com -->
    <title>形状结合</title>
    <desc>Created with Sketch.</desc>
    <defs>
        <rect id="path-1" x="0" y="0" width="75" height="75"></rect>
    </defs>
    <g id="APP-tongwei-" stroke="none" stroke-width="1" fill="none" fill-rule="evenodd">
        <g id="管理人员菜单页" transform="translate(-164.000000, -237.000000)">
            <g id="编组-7" transform="translate(0.000000, 210.500000)">
                <g id="Group-10" transform="translate(150.000000, 15.000000)">
                    <g id="形状结合">
                        <mask id="mask-2" fill="white">
                            <use xlink:href="#path-1"></use>
                        </mask>
                        <g id="蒙版"></g>
                        <g id="编组" mask="url(#mask-2)" fill="#D39540">
                            <g transform="translate(14.000000, 11.500000)">
                                <path d="M43.8666667,24.9301651 L43.8666667,27.2794118 L3.13333333,27.2794118 L3.13333333,40.3051973 L43.8666667,40.3051973 L43.8666667,24.9301651 Z M43.0866269,24.1617647 L25.6441302,6.97953515 C24.4599598,5.81303424 22.5400402,5.81303424 21.3558698,6.97953515 L3.91337305,24.1617647 L43.0866269,24.1617647 Z M43.8666667,43.2922097 L3.13333333,43.2922097 L3.13333333,47.5256821 C3.13333333,48.7357858 4.80079188,49.934382 7.05,49.934382 L39.95,49.934382 C42.1992081,49.934382 43.8666667,48.7357858 43.8666667,47.5256821 L43.8666667,43.2922097 Z M47,24.3768115 L47,47.5256821 C47,50.669249 43.7575146,53 39.95,53 L7.05,53 C3.24248536,53 1.0658141e-14,50.669249 1.0658141e-14,47.5256821 L1.08801856e-14,24.5848238 C1.17181843e-14,24.1853928 0.159310357,23.8024579 0.442621989,23.5208916 L19.2117395,4.86739842 C21.5800804,2.53439661 25.4199196,2.53439661 27.7882605,4.86739842 L46.7049187,23.6675233 C46.8937931,23.8552342 47,24.1105242 47,24.3768115 Z" id="形状结合" fill-rule="nonzero"></path>
                                <ellipse id="椭圆形" fill-rule="evenodd" cx="5.48333333" cy="12.4705882" rx="1.56666667" ry="1.55882353"></ellipse>
                                <ellipse id="椭圆形备份" fill-rule="evenodd" cx="10.1833333" cy="2.33823529" rx="2.35" ry="2.33823529"></ellipse>
                                <ellipse id="椭圆形备份-2" fill-rule="evenodd" cx="42.3" cy="12.4705882" rx="2.35" ry="2.33823529"></ellipse>
                                <ellipse id="椭圆形备份-3" fill-rule="evenodd" cx="35.25" cy="3.89705882" rx="1.56666667" ry="1.55882353"></ellipse>
                            </g>
                        </g>
                    </g>
                </g>
            </g>
        </g>
    </g>
</svg>